^C:\MEDIA\PROG_FUND2\STUDENTS\STUDENTS\DEBUG\MAIN.OBJ|C:\MEDIA\PROG_FUND2\STUDENTS\STUDENTS\DEBUG\STDAFX.OBJ|C:\MEDIA\PROG_FUND2\STUDENTS\STUDENTS\DEBUG\STUDENT.OBJ|C:\MEDIA\PROG_FUND2\STUDENTS\STUDENTS\DEBUG\STUDENTS.EXE.EMBED.MANIFEST.RES
/ERRORREPORT:PROMPT /OUT:"C:\MEDIA\PROG_FUND2\Students\Debug\Students.exe" /INCREMENTAL /NOLOGO kernel32.lib user32.lib gdi32.lib winspool.lib comdlg32.lib advapi32.lib shell32.lib ole32.lib oleaut32.lib uuid.lib odbc32.lib odbccp32.lib /MANIFEST /ManifestFile:"Debug\Students.exe.intermediate.manifest" /MANIFESTUAC:"level='asInvoker' uiAccess='false'" /DEBUG /PDB:"C:\MEDIA\PROG_FUND2\Students\Debug\Students.pdb" /SUBSYSTEM:CONSOLE /TLBID:1 /DYNAMICBASE /NXCOMPAT /IMPLIB:"C:\MEDIA\PROG_FUND2\Students\Debug\Students.lib" /MACHINE:X86 Debug\Students.exe.embed.manifest.res
Debug\stdafx.obj
Debug\main.obj
Debug\Student.obj
